Estadística Inferencial en R
…
# RLinS: supuesto **#3** normalidad residuales

- generación de _dataframe_ con:
  * `.fitted` : valor predicho de Y para valor de X ( `\(\hat Y\)` )
  * `.resid` : valor crudo del residual ( `\(Y - \hat Y\)` )
  * `.std.resid` : valor _estudiantizado_ del residual

```r
wm1 %>% 
* augment()
```

```
## # A tibble: 654 x 9
##      vef  edad .fitted .se.fit .resid    .hat .sigma   .cooksd .std.resid
##    <dbl> <dbl>   <dbl>   <dbl>  <dbl>   <dbl>  <dbl>     <dbl>      <dbl>
##  1  1.71     9    2.43  0.0233 -0.722 0.00168  0.567 0.00137       -1.27 
##  2  1.72     8    2.21  0.0265 -0.484 0.00218  0.568 0.000797      -0.854
##  3  1.72     7    1.99  0.0313 -0.266 0.00304  0.568 0.000335      -0.469
##  4  1.56     9    2.43  0.0233 -0.872 0.00168  0.567 0.00199       -1.54 
##  5  1.89     9    2.43  0.0233 -0.535 0.00168  0.568 0.000750      -0.944
##  6  2.34     8    2.21  0.0265  0.128 0.00218  0.568 0.0000558      0.226
##  7  1.92     6    1.76  0.0370  0.155 0.00424  0.568 0.000160       0.274
##  8  1.41     6    1.76  0.0370 -0.349 0.00424  0.568 0.000808      -0.616
##  9  1.99     8    2.21  0.0265 -0.221 0.00218  0.568 0.000166      -0.390
## 10  1.94     9    2.43  0.0233 -0.488 0.00168  0.568 0.000624      -0.861
## # ... with 644 more rows
```
…
--

```r
linear_models
```

```
## # A tibble: 5,536 x 6
## # Groups:   name, systematic_name, nutrient [5,536]
##    name  systematic_name nutrient           data model  tidym           
##    <chr> <chr>           <chr>    <list<df[,4]>> <list> <list>          
##  1 SFB2  YNL049C         Ammonia         [6 x 4] <lm>   <tibble [2 x 5]>
##  2 ""    YNL095C         Ammonia         [6 x 4] <lm>   <tibble [2 x 5]>
##  3 QRI7  YDL104C         Ammonia         [6 x 4] <lm>   <tibble [2 x 5]>
##  4 CFT2  YLR115W         Ammonia         [6 x 4] <lm>   <tibble [2 x 5]>
##  5 SSO2  YMR183C         Ammonia         [6 x 4] <lm>   <tibble [2 x 5]>
##  6 PSP2  YML017W         Ammonia         [6 x 4] <lm>   <tibble [2 x 5]>
##  7 RIB2  YOL066C         Ammonia         [6 x 4] <lm>   <tibble [2 x 5]>
##  8 VMA13 YPR036W         Ammonia         [6 x 4] <lm>   <tibble [2 x 5]>
##  9 EDC3  YEL015W         Ammonia         [6 x 4] <lm>   <tibble [2 x 5]>
## 10 VPS5  YOR069W         Ammonia         [6 x 4] <lm>   <tibble [2 x 5]>
## # ... with 5,526 more rows
```
…
---

# Microarray: Lista de genes de interés

```r
slope_terms_adj %>% 
  filter(q.value_pass=="TRUE") %>% 
* arrange(q.value) %>%
  select(systematic_name,nutrient,term,estimate,p.value,q.value)
```

```
## # A tibble: 585 x 6
##    systematic_name nutrient term  estimate     p.value  q.value
##    <chr>           <chr>    <chr>    <dbl>       <dbl>    <dbl>
##  1 YBR291C         Ammonia  rate     11.6  0.000000582 0.000951
##  2 YLR174W         Ammonia  rate    -14.0  0.00000162  0.00132 
##  3 YLL003W         Ammonia  rate     -4.22 0.00000346  0.00189 
##  4 YMR053C         Ammonia  rate     -7.25 0.00000656  0.00268 
##  5 YEL001C         Ammonia  rate      6.61 0.0000155   0.00276 
##  6 YHR068W         Ammonia  rate     10.0  0.0000166   0.00276 
##  7 YDR069C         Ammonia  rate     -4.49 0.00000939  0.00276 
##  8 YML128C         Ammonia  rate    -15.0  0.0000169   0.00276 
##  9 YPR049C         Ammonia  rate     -5.90 0.0000128   0.00276 
## 10 YGR244C         Ammonia  rate     -5.44 0.0000135   0.00276 
## # ... with 575 more rows
```
…
